{
  "data":{
    "type":"object",
    "properties":{
      "attributes":{
        "type":"object",
        "properties":{
          "text":{
            "type":"string"
          }
        }
      }
    }
  }
}